<?xml version="1.0" encoding="UTF-8" standalone="no"?><svg xmlns="http://www.w3.org/2000/svg" xmlns:xlink="http://www.w3.org/1999/xlink" contentScriptType="application/ecmascript" contentStyleType="text/css" height="494px" preserveAspectRatio="none" style="width:532px;height:494px;background:#00000000;" version="1.1" viewBox="0 0 532 494" width="532px" zoomAndPan="magnify"><defs><filter height="300%" id="f1l9e7hwmkci9a" width="300%" x="-1" y="-1"><feGaussianBlur result="blurOut" stdDeviation="2.0"/><feColorMatrix in="blurOut" result="blurOut2" type="matrix" values="0 0 0 0 0 0 0 0 0 0 0 0 0 0 0 0 0 0 .4 0"/><feOffset dx="4.0" dy="4.0" in="blurOut2" result="blurOut3"/><feBlend in="SourceGraphic" in2="blurOut3" mode="normal"/></filter></defs><g><ellipse cx="263" cy="20" fill="#000000" filter="url(#f1l9e7hwmkci9a)" rx="10" ry="10" style="stroke:none;stroke-width:1.0;"/><rect fill="#FEFECE" filter="url(#f1l9e7hwmkci9a)" height="61.9063" rx="12.5" ry="12.5" style="stroke:#A80036;stroke-width:1.5;" width="224" x="151" y="50"/><text fill="#000000" font-family="sans-serif" font-size="12" lengthAdjust="spacing" textLength="40" x="243" y="71.1387">Create</text><text fill="#000000" font-family="sans-serif" font-size="12" lengthAdjust="spacing" textLength="200" x="161" y="85.1074">EFI_VARIABLE_AUTHENTICATION_2</text><text fill="#000000" font-family="sans-serif" font-size="12" lengthAdjust="spacing" textLength="63" x="231.5" y="99.0762">descriptor</text><rect fill="#FEFECE" filter="url(#f1l9e7hwmkci9a)" height="33.9688" rx="12.5" ry="12.5" style="stroke:#A80036;stroke-width:1.5;" width="504" x="11" y="131.9063"/><text fill="#000000" font-family="sans-serif" font-size="12" lengthAdjust="spacing" textLength="484" x="21" y="153.0449">Hash(VariableName, VendorGuid, Attributes, TimeStamp, Variable_New_Content)</text><rect fill="#FEFECE" filter="url(#f1l9e7hwmkci9a)" height="33.9688" rx="12.5" ry="12.5" style="stroke:#A80036;stroke-width:1.5;" width="88" x="219" y="185.875"/><text fill="#000000" font-family="sans-serif" font-size="12" lengthAdjust="spacing" textLength="68" x="229" y="207.0137">Sign digest</text><rect fill="#FEFECE" filter="url(#f1l9e7hwmkci9a)" height="47.9375" rx="12.5" ry="12.5" style="stroke:#A80036;stroke-width:1.5;" width="305" x="110.5" y="239.8438"/><text fill="#000000" font-family="sans-serif" font-size="12" lengthAdjust="spacing" textLength="285" x="120.5" y="260.9824">Construct a DER-encoded SignedData structure</text><text fill="#000000" font-family="sans-serif" font-size="12" lengthAdjust="spacing" textLength="200" x="163" y="274.9512">(PKCS#7 version 1.5 (RFC 2315))</text><rect fill="#FEFECE" filter="url(#f1l9e7hwmkci9a)" height="33.9688" rx="12.5" ry="12.5" style="stroke:#A80036;stroke-width:1.5;" width="413" x="56.5" y="307.7813"/><text fill="#000000" font-family="sans-serif" font-size="12" lengthAdjust="spacing" textLength="393" x="66.5" y="328.9199">EFI_VARIABLE_AUTHENTICATION_2.AuthInfo.CertData = SignedData</text><rect fill="#FEFECE" filter="url(#f1l9e7hwmkci9a)" height="75.875" rx="12.5" ry="12.5" style="stroke:#A80036;stroke-width:1.5;" width="220" x="153" y="361.75"/><text fill="#000000" font-family="sans-serif" font-size="12" lengthAdjust="spacing" textLength="138" x="194" y="382.8887">Concatenate serialized</text><text fill="#000000" font-family="sans-serif" font-size="12" lengthAdjust="spacing" textLength="200" x="163" y="396.8574">EFI_VARIABLE_AUTHENTICATION_2</text><text fill="#000000" font-family="sans-serif" font-size="12" lengthAdjust="spacing" textLength="22" x="252" y="410.8262">and</text><text fill="#000000" font-family="sans-serif" font-size="12" lengthAdjust="spacing" textLength="133" x="196.5" y="424.7949">Variable_New_Content</text><ellipse cx="263" cy="467.625" filter="url(#f1l9e7hwmkci9a)" rx="10" ry="10" style="stroke:#000000;stroke-width:1.5;fill:none;"/><line style="stroke:#000000;stroke-width:2.5;fill:none;" x1="256.8128" x2="269.1872" y1="461.4378" y2="473.8122"/><line style="stroke:#000000;stroke-width:2.5;fill:none;" x1="269.1872" x2="256.8128" y1="461.4378" y2="473.8122"/><line style="stroke:#A80036;stroke-width:1.5;fill:none;" x1="263" x2="263" y1="30" y2="50"/><polygon fill="#A80036" points="259,40,263,50,267,40,263,44" style="stroke:#A80036;stroke-width:1.0;"/><line style="stroke:#A80036;stroke-width:1.5;" x1="263" x2="263" y1="111.9063" y2="131.9063"/><polygon fill="#A80036" points="259,121.9063,263,131.9063,267,121.9063,263,125.9063" style="stroke:#A80036;stroke-width:1.0;"/><line style="stroke:#A80036;stroke-width:1.5;" x1="263" x2="263" y1="165.875" y2="185.875"/><polygon fill="#A80036" points="259,175.875,263,185.875,267,175.875,263,179.875" style="stroke:#A80036;stroke-width:1.0;"/><line style="stroke:#A80036;stroke-width:1.5;" x1="263" x2="263" y1="219.8438" y2="239.8438"/><polygon fill="#A80036" points="259,229.8438,263,239.8438,267,229.8438,263,233.8438" style="stroke:#A80036;stroke-width:1.0;"/><line style="stroke:#A80036;stroke-width:1.5;" x1="263" x2="263" y1="287.7813" y2="307.7813"/><polygon fill="#A80036" points="259,297.7813,263,307.7813,267,297.7813,263,301.7813" style="stroke:#A80036;stroke-width:1.0;"/><line style="stroke:#A80036;stroke-width:1.5;" x1="263" x2="263" y1="341.75" y2="361.75"/><polygon fill="#A80036" points="259,351.75,263,361.75,267,351.75,263,355.75" style="stroke:#A80036;stroke-width:1.0;"/><line style="stroke:#A80036;stroke-width:1.5;" x1="263" x2="263" y1="437.625" y2="457.625"/><polygon fill="#A80036" points="259,447.625,263,457.625,267,447.625,263,451.625" style="stroke:#A80036;stroke-width:1.0;"/><!--MD5=[38f99127a30563c1a2bcef92ef025616]
@startuml
skinparam defaultTextAlignment center
skinparam backgroundcolor transparent
start
:Create 
EFI_VARIABLE_AUTHENTICATION_2 
descriptor;
:Hash(VariableName, VendorGuid, Attributes, TimeStamp, Variable_New_Content);
:Sign digest;
:Construct a DER-encoded SignedData structure
(PKCS#7 version 1.5 (RFC 2315));
:EFI_VARIABLE_AUTHENTICATION_2.AuthInfo.CertData = SignedData;
:Concatenate serialized
EFI_VARIABLE_AUTHENTICATION_2
and
Variable_New_Content;
end
@enduml

PlantUML version 1.2021.17beta10(Unknown compile time)
(GPL source distribution)
Java Runtime: Java(TM) SE Runtime Environment
JVM: Java HotSpot(TM) 64-Bit Server VM
Default Encoding: UTF-8
Language: en
Country: US
--></g></svg>